{
  "logo": "0041",
  "compass": "0042",
  "robot": "0043",
  "travel": "0044",
  "expense": "0045",
  "camera": "0046",
  "stopwatch": "0047",
  "insert-row-above": "004F",
  "insert-row-below": "0050"
}