{
    "area-chart": "E978",
    "bar-chart": "E979",
    "network-tree": "E97A",
    "hierarchy-tree": "E97B",
    "employee-tree": "E97C",
    "performance-chart": "E97D",
    "opportunity-chart": "E97E",
    "performance-chart-big": "E97F",
    "line-chart": "E980",
    "data-chart": "E981",
    "ring-chart": "E982",
    "pie-chart": "E983",
    "checkered-flag": "EDBC",
    "checkered-flags": "EDBD",
    "stopwatch": "EDCD",
    "checkered-flag-2": "EF2E",
    "refresh": "EFD1",
    "refresh-2": "EFF6",
    "switch-off": "F011",
    "switch-on": "F012",
    "search": "ED11",
    "search-detail": "ED12",
    "search-document": "ED13",
    "search-folder": "ED14",
    "search-employee": "ED15",
    "search-maps": "ED16",
    "search-home": "ED17",
    "search-food": "ED18",
    "search-graph": "ED19",
    "search-person": "ED1A"
}